{
  "dyname":"2人",
    "dyzuozhe":"342@qq.com",
    "apiyuan":
[
   {

    "id": 1,

    "name": "39影视",

    "searchurl": "https://www.39kan.com/api.php/provide/vod/?ac=detail&wd=",

    "searchua": "User-Agent#Mozilla/5.0 (Linux; Android 12; Redmi K30 Pro Build/SKQ1.220303.001; wv) AppleWebKit/537.36 (KHTML, like Gecko) Version/4.0 Chrome/99.0.4844.88 Mobile Safari/537.36",

    "detailurl": "https://www.39kan.com/api.php/provide/vod/?ac=detail&ids=",

    "detailua": "User-Agent#Mozilla/5.0 (Linux; Android 12; Redmi K30 Pro Build/SKQ1.220303.001; wv) AppleWebKit/537.36 (KHTML, like Gecko) Version/4.0 Chrome/99.0.4844.88 Mobile Safari/537.36",

    "shenhe": 0

  },
   {
    
    "id": 2,

    "name": "天堂资源",

    "searchurl": "http://vipmv.cc/api.php/provide/vod/?ac=detail&wd=",

    "searchua": "User-Agent#Mozilla/5.0 (Linux; Android 12; Redmi K30 Pro Build/SKQ1.220303.001; wv) AppleWebKit/537.36 (KHTML, like Gecko) Version/4.0 Chrome/99.0.4844.88 Mobile Safari/537.36",

    "detailurl": "http://vipmv.cc/api.php/provide/vod/?ac=detail&ids=",

    "detailua": "User-Agent#Mozilla/5.0 (Linux; Android 12; Redmi K30 Pro Build/SKQ1.220303.001; wv) AppleWebKit/537.36 (KHTML, like Gecko) Version/4.0 Chrome/99.0.4844.88 Mobile Safari/537.36",

    "shenhe": 0

  },
   {

    "id": 3,

    "name": "卧龙资源",

    "searchurl": "https://collect.wolongzyw.com/api.php/provide/vod/?ac=detail&wd=",

    "searchua": "User-Agent#Mozilla/5.0 (Linux; Android 12; Redmi K30 Pro Build/SKQ1.220303.001; wv) AppleWebKit/537.36 (KHTML, like Gecko) Version/4.0 Chrome/99.0.4844.88 Mobile Safari/537.36",

    "detailurl": "https://collect.wolongzyw.com/api.php/provide/vod/?ac=detail&ids=",

    "detailua": "User-Agent#Mozilla/5.0 (Linux; Android 12; Redmi K30 Pro Build/SKQ1.220303.001; wv) AppleWebKit/537.36 (KHTML, like Gecko) Version/4.0 Chrome/99.0.4844.88 Mobile Safari/537.36",

    "shenhe": 0

  },
   {

    "id": 4,

    "name": "6U资源",

    "searchurl": "http://zy.ataoju.com/inc/api.php?ac=detail&wd=",

    "searchua": "User-Agent#Mozilla/5.0 (Linux; Android 12; Redmi K30 Pro Build/SKQ1.220303.001; wv) AppleWebKit/537.36 (KHTML, like Gecko) Version/4.0 Chrome/99.0.4844.88 Mobile Safari/537.36",

    "detailurl": "http://zy.ataoju.com/inc/api.php?ac=detail&ids=",

    "detailua": "User-Agent#Mozilla/5.0 (Linux; Android 12; Redmi K30 Pro Build/SKQ1.220303.001; wv) AppleWebKit/537.36 (KHTML, like Gecko) Version/4.0 Chrome/99.0.4844.88 Mobile Safari/537.36",

    "shenhe": 0

  },
   {

    "id": 5,

    "name": "量子资源",

    "searchurl": "http://cj.lziapi.com/api.php/provide/vod/?ac=detail&wd=",

    "searchua": "User-Agent#Mozilla/5.0 (Linux; Android 12; Redmi K30 Pro Build/SKQ1.220303.001; wv) AppleWebKit/537.36 (KHTML, like Gecko) Version/4.0 Chrome/99.0.4844.88 Mobile Safari/537.36",

    "detailurl": "http://cj.lziapi.com/api.php/provide/vod/?ac=detail&ids=",

    "detailua": "User-Agent#Mozilla/5.0 (Linux; Android 12; Redmi K30 Pro Build/SKQ1.220303.001; wv) AppleWebKit/537.36 (KHTML, like Gecko) Version/4.0 Chrome/99.0.4844.88 Mobile Safari/537.36",

    "shenhe": 0

  },
   {

    "id": 6,

    "name": "FOX资源",

    "searchurl": "https://api.foxzyapi.com/api.php/provide/vod/?ac=detail&wd=",

    "searchua": "User-Agent#Mozilla/5.0 (Linux; Android 12; Redmi K30 Pro Build/SKQ1.220303.001; wv) AppleWebKit/537.36 (KHTML, like Gecko) Version/4.0 Chrome/99.0.4844.88 Mobile Safari/537.36",

    "detailurl": "https://api.foxzyapi.com/api.php/provide/vod/?ac=detail&ids=",

    "detailua": "User-Agent#Mozilla/5.0 (Linux; Android 12; Redmi K30 Pro Build/SKQ1.220303.001; wv) AppleWebKit/537.36 (KHTML, like Gecko) Version/4.0 Chrome/99.0.4844.88 Mobile Safari/537.36",

    "shenhe": 0

  },
   {

    "id": 7,

    "name": "乐活影视",

    "searchurl": "https://lehootv.com/api.php/provide/vod/?ac=detail&wd=",

    "searchua": "User-Agent#Mozilla/5.0 (Linux; Android 12; Redmi K30 Pro Build/SKQ1.220303.001; wv) AppleWebKit/537.36 (KHTML, like Gecko) Version/4.0 Chrome/99.0.4844.88 Mobile Safari/537.36",

    "detailurl": "https://lehootv.com/api.php/provide/vod/?ac=detail&ids=",

    "detailua": "User-Agent#Mozilla/5.0 (Linux; Android 12; Redmi K30 Pro Build/SKQ1.220303.001; wv) AppleWebKit/537.36 (KHTML, like Gecko) Version/4.0 Chrome/99.0.4844.88 Mobile Safari/537.36",

    "shenhe": 0

  },
   {

    "id": 8,

    "name": "快播资源",

    "searchurl": "http://www.kuaibozy.com/api.php/provide/vod/?ac=detail&wd=",

    "searchua": "User-Agent#Mozilla/5.0 (Linux; Android 12; Redmi K30 Pro Build/SKQ1.220303.001; wv) AppleWebKit/537.36 (KHTML, like Gecko) Version/4.0 Chrome/99.0.4844.88 Mobile Safari/537.36",

    "detailurl": "http://www.kuaibozy.com/api.php/provide/vod/?ac=detail&ids=",

    "detailua": "User-Agent#Mozilla/5.0 (Linux; Android 12; Redmi K30 Pro Build/SKQ1.220303.001; wv) AppleWebKit/537.36 (KHTML, like Gecko) Version/4.0 Chrome/99.0.4844.88 Mobile Safari/537.36",

    "shenhe": 0

  },
   {

    "id": 9,

    "name": "百度云资源",

    "searchurl": "https://api.apibdzy.com/api.php/provide/vod/?ac=detail&wd=",

    "searchua": "User-Agent#Mozilla/5.0 (Linux; Android 12; Redmi K30 Pro Build/SKQ1.220303.001; wv) AppleWebKit/537.36 (KHTML, like Gecko) Version/4.0 Chrome/99.0.4844.88 Mobile Safari/537.36",

    "detailurl": "https://api.apibdzy.com/api.php/provide/vod/?ac=detail&ids=",

    "detailua": "User-Agent#Mozilla/5.0 (Linux; Android 12; Redmi K30 Pro Build/SKQ1.220303.001; wv) AppleWebKit/537.36 (KHTML, like Gecko) Version/4.0 Chrome/99.0.4844.88 Mobile Safari/537.36",

    "shenhe": 0

  },
   {

    "id": 10,

    "name": "tom资源网",

    "searchurl": "https://tomziyuan.com/api.php/provide/vod/?ac=detail&wd=",

    "searchua": "User-Agent#Mozilla/5.0 (Linux; Android 12; Redmi K30 Pro Build/SKQ1.220303.001; wv) AppleWebKit/537.36 (KHTML, like Gecko) Version/4.0 Chrome/99.0.4844.88 Mobile Safari/537.36",

    "detailurl": "https://tomziyuan.com/api.php/provide/vod/?ac=detail&ids=",

    "detailua": "User-Agent#Mozilla/5.0 (Linux; Android 12; Redmi K30 Pro Build/SKQ1.220303.001; wv) AppleWebKit/537.36 (KHTML, like Gecko) Version/4.0 Chrome/99.0.4844.88 Mobile Safari/537.36",

    "shenhe": 0

  },
   {

    "id": 11,

    "name": "卧龙资源站综合资源",

    "searchurl": "https://collect.wolongzyw.com/api.php/provide/vod/?ac=detail&wd=",

    "searchua": "User-Agent#Mozilla/5.0 (Linux; Android 12; Redmi K30 Pro Build/SKQ1.220303.001; wv) AppleWebKit/537.36 (KHTML, like Gecko) Version/4.0 Chrome/99.0.4844.88 Mobile Safari/537.36",

    "detailurl": "https://collect.wolongzyw.com/api.php/provide/vod/?ac=detail&ids=",

    "detailua": "User-Agent#Mozilla/5.0 (Linux; Android 12; Redmi K30 Pro Build/SKQ1.220303.001; wv) AppleWebKit/537.36 (KHTML, like Gecko) Version/4.0 Chrome/99.0.4844.88 Mobile Safari/537.36",

    "shenhe": 0

  },
   {

    "id": 12,

    "name": "酷点资源",

    "searchurl": "https://kudianzy.com/api.php/provide/vod/?ac=detail&wd=",

    "searchua": "User-Agent#Mozilla/5.0 (Linux; Android 12; Redmi K30 Pro Build/SKQ1.220303.001; wv) AppleWebKit/537.36 (KHTML, like Gecko) Version/4.0 Chrome/99.0.4844.88 Mobile Safari/537.36",

    "detailurl": "https://kudianzy.com/api.php/provide/vod/?ac=detail&ids=",

    "detailua": "User-Agent#Mozilla/5.0 (Linux; Android 12; Redmi K30 Pro Build/SKQ1.220303.001; wv) AppleWebKit/537.36 (KHTML, like Gecko) Version/4.0 Chrome/99.0.4844.88 Mobile Safari/537.36",

    "shenhe": 0

  },
   {

    "id": 13,

    "name": "淘片资源采集网",

    "searchurl": "https://taopianapi.com/home/cjapi/as/mc10/vod/json?ac=detail&wd=",

    "searchua": "User-Agent#Mozilla/5.0 (Linux; Android 12; Redmi K30 Pro Build/SKQ1.220303.001; wv) AppleWebKit/537.36 (KHTML, like Gecko) Version/4.0 Chrome/99.0.4844.88 Mobile Safari/537.36",

    "detailurl": "https://taopianapi.com/home/cjapi/as/mc10/vod/json?ac=detail&ids=",

    "detailua": "User-Agent#Mozilla/5.0 (Linux; Android 12; Redmi K30 Pro Build/SKQ1.220303.001; wv) AppleWebKit/537.36 (KHTML, like Gecko) Version/4.0 Chrome/99.0.4844.88 Mobile Safari/537.36",

    "shenhe": 0

  },
   {

    "id": 14,

    "name": "新浪资源",

    "searchurl": "https://api.xinlangapi.com/xinlangapi.php/provide/vod/?ac=detail&wd=",

    "searchua": "User-Agent#Mozilla/5.0 (Linux; Android 12; Redmi K30 Pro Build/SKQ1.220303.001; wv) AppleWebKit/537.36 (KHTML, like Gecko) Version/4.0 Chrome/99.0.4844.88 Mobile Safari/537.36",

    "detailurl": "https://api.xinlangapi.com/xinlangapi.php/provide/vod/?ac=detail&ids=",

    "detailua": "User-Agent#Mozilla/5.0 (Linux; Android 12; Redmi K30 Pro Build/SKQ1.220303.001; wv) AppleWebKit/537.36 (KHTML, like Gecko) Version/4.0 Chrome/99.0.4844.88 Mobile Safari/537.36",

    "shenhe": 0

  },
   {

    "id": 15,

    "name": "量子资源",

    "searchurl": "https://cj.lziapi.com/api.php/provide/vod/from/liangzi/?ac=detail&wd=",

    "searchua": "User-Agent#Mozilla/5.0 (Linux; Android 12; Redmi K30 Pro Build/SKQ1.220303.001; wv) AppleWebKit/537.36 (KHTML, like Gecko) Version/4.0 Chrome/99.0.4844.88 Mobile Safari/537.36",

    "detailurl": "https://cj.lziapi.com/api.php/provide/vod/from/liangzi/?ac=detail&ids=",

    "detailua": "User-Agent#Mozilla/5.0 (Linux; Android 12; Redmi K30 Pro Build/SKQ1.220303.001; wv) AppleWebKit/537.36 (KHTML, like Gecko) Version/4.0 Chrome/99.0.4844.88 Mobile Safari/537.36",

    "shenhe": 0

  },
   {

    "id": 16,

    "name": "鱼乐资源网",

    "searchurl": "https://api.yulecj.com/api.php/provide/vod/?ac=detail&wd=",

    "searchua": "User-Agent#Mozilla/5.0 (Linux; Android 12; Redmi K30 Pro Build/SKQ1.220303.001; wv) AppleWebKit/537.36 (KHTML, like Gecko) Version/4.0 Chrome/99.0.4844.88 Mobile Safari/537.36",

    "detailurl": "https://api.yulecj.com/api.php/provide/vod/?ac=detail&ids=",

    "detailua": "User-Agent#Mozilla/5.0 (Linux; Android 12; Redmi K30 Pro Build/SKQ1.220303.001; wv) AppleWebKit/537.36 (KHTML, like Gecko) Version/4.0 Chrome/99.0.4844.88 Mobile Safari/537.36",

    "shenhe": 0

  },
   {

    "id": 17,

    "name": "闪电资源网",

    "searchurl": "https://sdzyapi.com/api.php/provide/vod/?ac=detail&wd=",

    "searchua": "User-Agent#Mozilla/5.0 (Linux; Android 12; Redmi K30 Pro Build/SKQ1.220303.001; wv) AppleWebKit/537.36 (KHTML, like Gecko) Version/4.0 Chrome/99.0.4844.88 Mobile Safari/537.36",

    "detailurl": "https://sdzyapi.com/api.php/provide/vod/?ac=detail&ids=",

    "detailua": "User-Agent#Mozilla/5.0 (Linux; Android 12; Redmi K30 Pro Build/SKQ1.220303.001; wv) AppleWebKit/537.36 (KHTML, like Gecko) Version/4.0 Chrome/99.0.4844.88 Mobile Safari/537.36",

    "shenhe": 0

  },
   {

    "id": 18,

    "name": "步步高资源",

    "searchurl": "https://api.yparse.com/api/json?ac=detail&wd=",

    "searchua": "User-Agent#Mozilla/5.0 (Linux; Android 12; Redmi K30 Pro Build/SKQ1.220303.001; wv) AppleWebKit/537.36 (KHTML, like Gecko) Version/4.0 Chrome/99.0.4844.88 Mobile Safari/537.36",

    "detailurl": "https://api.yparse.com/api/json?ac=detail&ids=",

    "detailua": "User-Agent#Mozilla/5.0 (Linux; Android 12; Redmi K30 Pro Build/SKQ1.220303.001; wv) AppleWebKit/537.36 (KHTML, like Gecko) Version/4.0 Chrome/99.0.4844.88 Mobile Safari/537.36",

    "shenhe": 0

  },
   {

    "id": 19,

    "name": "CK资源",

    "searchurl": "https://ckzy.me/api.php/provide/vod/?ac=detail&wd=",

    "searchua": "User-Agent#Mozilla/5.0 (Linux; Android 12; Redmi K30 Pro Build/SKQ1.220303.001; wv) AppleWebKit/537.36 (KHTML, like Gecko) Version/4.0 Chrome/99.0.4844.88 Mobile Safari/537.36",

    "detailurl": "https://ckzy.me/api.php/provide/vod/?ac=detail&ids=",

    "detailua": "User-Agent#Mozilla/5.0 (Linux; Android 12; Redmi K30 Pro Build/SKQ1.220303.001; wv) AppleWebKit/537.36 (KHTML, like Gecko) Version/4.0 Chrome/99.0.4844.88 Mobile Safari/537.36",

    "shenhe": 0

  },
   {

    "id": 20,

    "name": "番茄资源",

    "searchurl": "http://api.fqzy.cc/api.php/provide/vod/?ac=detail&wd=",

    "searchua": "User-Agent#Mozilla/5.0 (Linux; Android 12; Redmi K30 Pro Build/SKQ1.220303.001; wv) AppleWebKit/537.36 (KHTML, like Gecko) Version/4.0 Chrome/99.0.4844.88 Mobile Safari/537.36",

    "detailurl": "http://api.fqzy.cc/api.php/provide/vod/?ac=detail&ids=",

    "detailua": "User-Agent#Mozilla/5.0 (Linux; Android 12; Redmi K30 Pro Build/SKQ1.220303.001; wv) AppleWebKit/537.36 (KHTML, like Gecko) Version/4.0 Chrome/99.0.4844.88 Mobile Safari/537.36",

    "shenhe": 0

  },
   {

    "id": 21,

    "name": "光速资源",

    "searchurl": "https://api.guangsuapi.com/api.php/provide/vod/?ac=detail&wd=",

    "searchua": "User-Agent#Mozilla/5.0 (Linux; Android 12; Redmi K30 Pro Build/SKQ1.220303.001; wv) AppleWebKit/537.36 (KHTML, like Gecko) Version/4.0 Chrome/99.0.4844.88 Mobile Safari/537.36",

    "detailurl": "https://api.guangsuapi.com/api.php/provide/vod/?ac=detail&ids=",

    "detailua": "User-Agent#Mozilla/5.0 (Linux; Android 12; Redmi K30 Pro Build/SKQ1.220303.001; wv) AppleWebKit/537.36 (KHTML, like Gecko) Version/4.0 Chrome/99.0.4844.88 Mobile Safari/537.36",

    "shenhe": 0

  },
   {

    "id": 22,

    "name": "金鹰资源",

    "searchurl": "https://jyzyapi.com/provide/vod/?ac=detail&wd=",

    "searchua": "User-Agent#Mozilla/5.0 (Linux; Android 12; Redmi K30 Pro Build/SKQ1.220303.001; wv) AppleWebKit/537.36 (KHTML, like Gecko) Version/4.0 Chrome/99.0.4844.88 Mobile Safari/537.36",

    "detailurl": "https://jyzyapi.com/provide/vod/?ac=detail&ids=",

    "detailua": "User-Agent#Mozilla/5.0 (Linux; Android 12; Redmi K30 Pro Build/SKQ1.220303.001; wv) AppleWebKit/537.36 (KHTML, like Gecko) Version/4.0 Chrome/99.0.4844.88 Mobile Safari/537.36",

    "shenhe": 0

  },
   {

    "id": 23,

    "name": "天空资源",

    "searchurl": "https://api.tiankongapi.com/api.php/provide/vod//from/tkm3u8?ac=detail&wd=",

    "searchua": "User-Agent#Mozilla/5.0 (Linux; Android 12; Redmi K30 Pro Build/SKQ1.220303.001; wv) AppleWebKit/537.36 (KHTML, like Gecko) Version/4.0 Chrome/99.0.4844.88 Mobile Safari/537.36",

    "detailurl": "https://api.tiankongapi.com/api.php/provide/vod//from/tkm3u8?ac=detail&ids=",

    "detailua": "User-Agent#Mozilla/5.0 (Linux; Android 12; Redmi K30 Pro Build/SKQ1.220303.001; wv) AppleWebKit/537.36 (KHTML, like Gecko) Version/4.0 Chrome/99.0.4844.88 Mobile Safari/537.36",

    "shenhe": 0

  },
   {

    "id": 24,

    "name": "飞速资源",

    "searchurl": "https://www.feisuzy.com/api.php/provide/vod/?ac=detail&wd=",

    "searchua": "User-Agent#Mozilla/5.0 (Linux; Android 12; Redmi K30 Pro Build/SKQ1.220303.001; wv) AppleWebKit/537.36 (KHTML, like Gecko) Version/4.0 Chrome/99.0.4844.88 Mobile Safari/537.36",

    "detailurl": "https://www.feisuzy.com/api.php/provide/vod/?ac=detail&ids=",

    "detailua": "User-Agent#Mozilla/5.0 (Linux; Android 12; Redmi K30 Pro Build/SKQ1.220303.001; wv) AppleWebKit/537.36 (KHTML, like Gecko) Version/4.0 Chrome/99.0.4844.88 Mobile Safari/537.36",

    "shenhe": 0

  },
   {

    "id": 25,

    "name": "鱼乐资源",

    "searchurl": "https://api.ylzy1.com/api.php/provide/vod/?ac=detail&wd=",

    "searchua": "User-Agent#Mozilla/5.0 (Linux; Android 12; Redmi K30 Pro Build/SKQ1.220303.001; wv) AppleWebKit/537.36 (KHTML, like Gecko) Version/4.0 Chrome/99.0.4844.88 Mobile Safari/537.36",

    "detailurl": "https://api.ylzy1.com/api.php/provide/vod/?ac=detail&ids=",

    "detailua": "User-Agent#Mozilla/5.0 (Linux; Android 12; Redmi K30 Pro Build/SKQ1.220303.001; wv) AppleWebKit/537.36 (KHTML, like Gecko) Version/4.0 Chrome/99.0.4844.88 Mobile Safari/537.36",

    "shenhe": 0

  },
   {

    "id": 26,

    "name": "酷点资源",

    "searchurl": "https://kudian8.com/api.php/provide/vod/?ac=detail&wd=",

    "searchua": "User-Agent#Mozilla/5.0 (Linux; Android 12; Redmi K30 Pro Build/SKQ1.220303.001; wv) AppleWebKit/537.36 (KHTML, like Gecko) Version/4.0 Chrome/99.0.4844.88 Mobile Safari/537.36",

    "detailurl": "https://kudian8.com/api.php/provide/vod/?ac=detail&ids=",

    "detailua": "User-Agent#Mozilla/5.0 (Linux; Android 12; Redmi K30 Pro Build/SKQ1.220303.001; wv) AppleWebKit/537.36 (KHTML, like Gecko) Version/4.0 Chrome/99.0.4844.88 Mobile Safari/537.36",

    "shenhe": 0

  },
   {

    "id": 27,

    "name": "飘花资源",

    "searchurl": "http://www.zzrhgg.com/api.php/provide/vod/?ac=detail&wd=",

    "searchua": "User-Agent#Mozilla/5.0 (Linux; Android 12; Redmi K30 Pro Build/SKQ1.220303.001; wv) AppleWebKit/537.36 (KHTML, like Gecko) Version/4.0 Chrome/99.0.4844.88 Mobile Safari/537.36",

    "detailurl": "http://www.zzrhgg.com/api.php/provide/vod/?ac=detail&ids=",

    "detailua": "User-Agent#Mozilla/5.0 (Linux; Android 12; Redmi K30 Pro Build/SKQ1.220303.001; wv) AppleWebKit/537.36 (KHTML, like Gecko) Version/4.0 Chrome/99.0.4844.88 Mobile Safari/537.36",

    "shenhe": 0

  },
   {

    "id": 28,

    "name": "韩剧资源",

    "searchurl": "http://www.hanjuzy.com/inc/apijson_vod.php?ac=detail&wd=",

    "searchua": "User-Agent#Mozilla/5.0 (Linux; Android 12; Redmi K30 Pro Build/SKQ1.220303.001; wv) AppleWebKit/537.36 (KHTML, like Gecko) Version/4.0 Chrome/99.0.4844.88 Mobile Safari/537.36",

    "detailurl": "http://www.hanjuzy.com/inc/apijson_vod.php?ac=detail&ids=",

    "detailua": "User-Agent#Mozilla/5.0 (Linux; Android 12; Redmi K30 Pro Build/SKQ1.220303.001; wv) AppleWebKit/537.36 (KHTML, like Gecko) Version/4.0 Chrome/99.0.4844.88 Mobile Safari/537.36",

    "shenhe": 0

  },
   {

    "id": 29,

    "name": "KK资源网",

    "searchurl": "https://kkzy.me/api.php/provide/vod/sea?ac=detail&wd=",

    "searchua": "User-Agent#Mozilla/5.0 (Linux; Android 12; Redmi K30 Pro Build/SKQ1.220303.001; wv) AppleWebKit/537.36 (KHTML, like Gecko) Version/4.0 Chrome/99.0.4844.88 Mobile Safari/537.36",

    "detailurl": "https://kkzy.me/api.php/provide/vod/sea?ac=detail&ids=",

    "detailua": "User-Agent#Mozilla/5.0 (Linux; Android 12; Redmi K30 Pro Build/SKQ1.220303.001; wv) AppleWebKit/537.36 (KHTML, like Gecko) Version/4.0 Chrome/99.0.4844.88 Mobile Safari/537.36",

    "shenhe": 0

  },
   {

    "id": 30,

    "name": "八戒资源",

    "searchurl": "http://cj.bajiecaiji.com/inc/apijson_vod.php?ac=detail&wd=",

    "searchua": "User-Agent#Mozilla/5.0 (Linux; Android 12; Redmi K30 Pro Build/SKQ1.220303.001; wv) AppleWebKit/537.36 (KHTML, like Gecko) Version/4.0 Chrome/99.0.4844.88 Mobile Safari/537.36",

    "detailurl": "http://cj.bajiecaiji.com/inc/apijson_vod.php?ac=detail&ids=",

    "detailua": "User-Agent#Mozilla/5.0 (Linux; Android 12; Redmi K30 Pro Build/SKQ1.220303.001; wv) AppleWebKit/537.36 (KHTML, like Gecko) Version/4.0 Chrome/99.0.4844.88 Mobile Safari/537.36",

    "shenhe": 0

  },
   {

    "id": 32,

    "name": "南国影源",

    "searchurl": "http://api.nguonphim.tv/api.php/provide/vod/?ac=detail&wd=",

    "searchua": "User-Agent#Mozilla/5.0 (Linux; Android 12; Redmi K30 Pro Build/SKQ1.220303.001; wv) AppleWebKit/537.36 (KHTML, like Gecko) Version/4.0 Chrome/99.0.4844.88 Mobile Safari/537.36",

    "detailurl": "http://api.nguonphim.tv/api.php/provide/vod/?ac=detail&ids=",

    "detailua": "User-Agent#Mozilla/5.0 (Linux; Android 12; Redmi K30 Pro Build/SKQ1.220303.001; wv) AppleWebKit/537.36 (KHTML, like Gecko) Version/4.0 Chrome/99.0.4844.88 Mobile Safari/537.36",

    "shenhe": 0

  },
   {

    "id": 33,

    "name": "酷豆资源网",

    "searchurl": "https://api.kdapi.info/api.php/provide/vod/?ac=detail&wd=",

    "searchua": "User-Agent#Mozilla/5.0 (Linux; Android 12; Redmi K30 Pro Build/SKQ1.220303.001; wv) AppleWebKit/537.36 (KHTML, like Gecko) Version/4.0 Chrome/99.0.4844.88 Mobile Safari/537.36",

    "detailurl": "https://api.kdapi.info/api.php/provide/vod/?ac=detail&ids=",

    "detailua": "User-Agent#Mozilla/5.0 (Linux; Android 12; Redmi K30 Pro Build/SKQ1.220303.001; wv) AppleWebKit/537.36 (KHTML, like Gecko) Version/4.0 Chrome/99.0.4844.88 Mobile Safari/537.36",

    "shenhe": 0

  },
   {

    "id": 34,

    "name": "影库资源网",

    "searchurl": "https://api.ykapi.net/api.php/provide/vod/?ac=detail&wd=",

    "searchua": "User-Agent#Mozilla/5.0 (Linux; Android 12; Redmi K30 Pro Build/SKQ1.220303.001; wv) AppleWebKit/537.36 (KHTML, like Gecko) Version/4.0 Chrome/99.0.4844.88 Mobile Safari/537.36",

    "detailurl": "https://api.ykapi.net/api.php/provide/vod/?ac=detail&ids=",

    "detailua": "User-Agent#Mozilla/5.0 (Linux; Android 12; Redmi K30 Pro Build/SKQ1.220303.001; wv) AppleWebKit/537.36 (KHTML, like Gecko) Version/4.0 Chrome/99.0.4844.88 Mobile Safari/537.36",

    "shenhe": 0

  }
]
}